{
  "extends": ["tslint:recommended", "tslint-eslint-rules"],
  "rules": {
    "align": [true, "parameters", "statements"],
    "class-name": true,
    "comment-format": [true, "check-space"],
    "curly": true,
    "object-curly-spacing": true,
    "eofline": true,
    "forin": true,
    "indent": [true, "spaces"],
    "jsdoc-format": false,
    "label-position": true,
    "max-line-length": [true, 120],
    "member-ordering": [false, "public-before-private", "static-before-instance", "variables-before-functions"],
    "new-parens": true,
    "no-any": false,
    "no-arg": true,
    "no-bitwise": false,
    "no-conditional-assignment": true,
    "no-consecutive-blank-lines": true,
    "no-console": false,
    "ter-arrow-parens": [true, "as-needed"],
    "arrow-parens": false,
    "no-construct": true,
    "no-constructor-vars": false,
    "no-debugger": true,
    "no-duplicate-variable": true,
    "no-empty": false,
    "no-eval": true,
    "no-internal-module": true,
    "no-namespace": true,
    "no-reference": true,
    "no-shadowed-variable": true,
    "no-string-literal": true,
    "no-switch-case-fall-through": false,
    "no-trailing-whitespace": true,
    "no-unused-expression": [true, "allow-fast-null-checks", "allow-new", "allow-tagged-template"],
    "no-use-before-declare": false,
    "no-var-keyword": true,
    "no-var-requires": false,
    "object-literal-sort-keys": false,
    "one-line": [true, "check-catch", "check-else", "check-finally", "check-open-brace", "check-whitespace"],
    "one-variable-per-declaration": [false, "ignore-for-loop"],
    "quotemark": [true, "single"],
    "radix": true,
    "semicolon": [true, "always", "ignore-bound-class-methods"],
    "switch-default": true,
    "trailing-comma": [
      true,
      {
        "singleline": "never",
        "multiline": "always"
      }
    ],
    "triple-equals": [true, "allow-null-check"],
    "typedef": false,
    "typedef-whitespace": [
      true,
      {
        "call-signature": "nospace",
        "index-signature": "nospace",
        "parameter": "nospace",
        "property-declaration": "nospace",
        "variable-declaration": "nospace"
      },
      {
        "call-signature": "onespace",
        "index-signature": "onespace",
        "parameter": "onespace",
        "property-declaration": "onespace",
        "variable-declaration": "onespace"
      }
    ],
    "use-isnan": true,
    "variable-name": [true, "allow-leading-underscore", "ban-keywords", "check-format", "allow-pascal-case"],
    "whitespace": [
      true,
      "check-branch",
      "check-decl",
      "check-operator",
      "check-separator",
      "check-type",
      "check-typecast"
    ]
  }
}
